{
	"name": "create-block/k-ba-blocks",
	"title": "K Ba Blocks",
	"category": "widgets",
	"icon": "smiley",
	"description": "Example block written with ESNext standard and JSX support – build step required.",
	"textdomain": "create-block",
	"supports": {
		"html": false
	},
	"editorScript": "file:./build/index.js",
	"editorStyle": "file:./build/index.css",
	"style": "file:./build/style-index.css"
}